{
  "project_info": {
    "project_number": "355287723428",
    "firebase_url": "https://tryefm3.firebaseio.com",
    "project_id": "tryefm3",
    "storage_bucket": "tryefm3.appspot.com"
  },
  "client": [
    {
      "client_info": {
        "mobilesdk_app_id": "1:355287723428:android:08ac3a83dadb5a4228e531",
        "android_client_info": {
          "package_name": "com.example.ngo1"
        }
      },
      "oauth_client": [
        {
          "client_id": "355287723428-rb8h4qk47t8o12hsfis6ngut2lp0q5bc.apps.googleusercontent.com",
          "client_type": 1,
          "android_info": {
            "package_name": "com.example.ngo1",
            "certificate_hash": "0a8805455e12bc9abd50860d8c14fcba4891b852"
          }
        },
        {
          "client_id": "355287723428-r32smtrn1g5hhj4i9rfprqlt97cvt6ee.apps.googleusercontent.com",
          "client_type": 3
        }
      ],
      "api_key": [
        {
          "current_key": "AIzaSyD3D6YqXlJZl8Ej7U0WewwR5rQNaX0pqPI"
        }
      ],
      "services": {
        "appinvite_service": {
          "other_platform_oauth_client": [
            {
              "client_id": "355287723428-r32smtrn1g5hhj4i9rfprqlt97cvt6ee.apps.googleusercontent.com",
              "client_type": 3
            }
          ]
        }
      }
    },
    {
      "client_info": {
        "mobilesdk_app_id": "1:355287723428:android:718e15b779541f0128e531",
        "android_client_info": {
          "package_name": "com.example.try_efm_3"
        }
      },
      "oauth_client": [
        {
          "client_id": "355287723428-jc7ag89jr1001htuboehdcgpo4hmemo9.apps.googleusercontent.com",
          "client_type": 1,
          "android_info": {
            "package_name": "com.example.try_efm_3",
            "certificate_hash": "0a8805455e12bc9abd50860d8c14fcba4891b852"
          }
        },
        {
          "client_id": "355287723428-r32smtrn1g5hhj4i9rfprqlt97cvt6ee.apps.googleusercontent.com",
          "client_type": 3
        }
      ],
      "api_key": [
        {
          "current_key": "AIzaSyD3D6YqXlJZl8Ej7U0WewwR5rQNaX0pqPI"
        }
      ],
      "services": {
        "appinvite_service": {
          "other_platform_oauth_client": [
            {
              "client_id": "355287723428-r32smtrn1g5hhj4i9rfprqlt97cvt6ee.apps.googleusercontent.com",
              "client_type": 3
            }
          ]
        }
      }
    }
  ],
  "configuration_version": "1"
}